{
  "version": 1,
  "type": 4,
  "notifications" : {
      "title" : "Notifications",
      "topLevel":
          [
              {
                  "title" : "GRID League General News",
                  "tag" : "TAG_GRID_LEAGUE_NEWS"
              }
          ],

      "multiLevel":
          [
              {
                "title" : "Baltimore Anthem",
                "hexColor1" : "#c5c92e",
                "hexColor2" : "#c5c92e",
                "items" :
                [
                  {
                    "title" : "News & Info",
                    "tag" : "TAG_BALTIMORE_ANTHEM_TAG_NEWS_&_INFO"
                  },
                  {
                    "title" : "Match Start",
                    "tag" : "TAG_BALTIMORE_ANTHEM_TAG_MATCH_START"
                  },
                  {
                    "title" : "Match Result",
                    "tag" : "TAG_BALTIMORE_ANTHEM_TAG_MATCH_RESULTS"
                  },
                  {
                    "title" : "Events",
                    "tag" : "TAG_BALTIMORE_ANTHEM_TAG_EVENTS"
                  }
                ]
              },
              {
                "title" : "Boston Iron",
                "hexColor1" : "#63b32e",
                "hexColor2" : "#63b32e",
                "items" :
                [
                  {
                    "title" : "News & Info",
                    "tag" : "TAG_BOSTON_IRON_TAG_NEWS_&_INFO"
                  },
                  {
                    "title" : "Match Start",
                    "tag" : "TAG_BOSTON_IRON_TAG_MATCH_START"
                  },
                  {
                    "title" : "Match Result",
                    "tag" : "TAG_BOSTON_IRON_TAG_MATCH_RESULTS"
                  },
                  {
                    "title" : "Events",
                    "tag" : "TAG_BOSTON_IRON_TAG_EVENTS"
                  }
                ]
              },
              {
                "title" : "DC Brawlers",
                "hexColor1" : "#346093",
                "hexColor2" : "#346093",
                "items" :
                [
                  {
                    "title" : "News & Info",
                    "tag" : "TAG_DC_BRAWLERS_TAG_NEWS_&_INFO"
                  },
                  {
                    "title" : "Match Start",
                    "tag" : "TAG_DC_BRAWLERS_TAG_MATCH_START"
                  },
                  {
                    "title" : "Match Result",
                    "tag" : "TAG_DC_BRAWLERS_TAG_MATCH_RESULTS"
                  },
                  {
                    "title" : "Events",
                    "tag" : "TAG_DC_BRAWLERS_TAG_EVENTS"
                  }
                ]
              },
              {
                "title" : "Los Angeles Reign",
                "hexColor1" : "#104b80",
                "hexColor2" : "#104b80",
                "items" :
                [
                  {
                    "title" : "News & Info",
                    "tag" : "TAG_LOS_ANGELES_REIGN_TAG_NEWS_&_INFO"
                  },
                  {
                    "title" : "Match Start",
                    "tag" : "TAG_LOS_ANGELES_REIGN_TAG_MATCH_START"
                  },
                  {
                    "title" : "Match Result",
                    "tag" : "TAG_LOS_ANGELES_REIGN_TAG_MATCH_RESULTS"
                  },
                  {
                    "title" : "Events",
                    "tag" : "TAG_LOS_ANGELES_REIGN_TAG_EVENTS"
                  }
                ]
              },
              {
                "title" : "Miami Surge",
                "hexColor1" : "#b6991f",
                "hexColor2" : "#b6991f",
                "items" :
                    [
                        {
                          "title" : "News & Info",
                          "tag" : "TAG_MIAMI_SURGE_TAG_NEWS_&_INFO"
                        },
                        {
                          "title" : "Match Start",
                          "tag" : "TAG_MIAMI_SURGE_TAG_MATCH_START"
                        },
                        {
                          "title" : "Match Result",
                          "tag" : "TAG_MIAMI_SURGE_TAG_MATCH_RESULTS"
                        },
                        {
                          "title" : "Events",
                          "tag" : "TAG_MIAMI_SURGE_TAG_EVENTS"
                        }
                    ]
              },
              {
                "title" : "New York Rhinos",
                "hexColor1" : "#1f3558",
                "hexColor2" : "#1f3558",
                "items" :
                [
                  {
                    "title" : "News & Info",
                    "tag" : "TAG_NEW_YORK_RHINOS_TAG_NEWS_&_INFO"
                  },
                  {
                    "title" : "Match Start",
                    "tag" : "TAG_NEW_YORK_RHINOS_TAG_MATCH_START"
                  },
                  {
                    "title" : "Match Result",
                    "tag" : "TAG_NEW_YORK_RHINOS_TAG_MATCH_RESULTS"
                  },
                  {
                    "title" : "Events",
                    "tag" : "TAG_NEW_YORK_RHINOS_TAG_EVENTS"
                  }
                ]
              },
              {
                  "title" : "Phoenix Rise",
                  "hexColor1" : "#d84127",
                  "hexColor2" : "#d84127",
                  "items" :
                      [
                        {
                          "title" : "News & Info",
                          "tag" : "TAG_PHOENIX_RISE_TAG_NEWS_&_INFO"
                        },
                        {
                          "title" : "Match Start",
                          "tag" : "TAG_PHOENIX_RISE_TAG_MATCH_START"
                        },
                        {
                          "title" : "Match Result",
                          "tag" : "TAG_PHOENIX_RISE_TAG_MATCH_RESULTS"
                        },
                        {
                          "title" : "Events",
                          "tag" : "TAG_PHOENIX_RISE_TAG_EVENTS"
                        }
                      ]
              },
              {
                  "title" : "San Francisco Fire",
                  "hexColor1" : "#dc1e33",
                  "hexColor2" : "#dc1e33",
                  "items" :
                      [
                          {
                            "title" : "News & Info",
                            "tag" : "TAG_SAN_FRANCISCO_FIRE_TAG_NEWS_&_INFO"
                          },
                          {
                            "title" : "Match Start",
                            "tag" : "TAG_SAN_FRANCISCO_FIRE_TAG_MATCH_START"
                          },
                          {
                            "title" : "Match Result",
                            "tag" : "TAG_SAN_FRANCISCO_FIRE_TAG_MATCH_RESULTS"
                          },
                          {
                            "title" : "Events",
                            "tag" : "TAG_SAN_FRANCISCO_FIRE_TAG_EVENTS"
                          }
                      ]
                }
         ]
    }
}